2.8688606702579653, 0.02749969490069537
2.9310342534901745, 0.06741957925515862
2.9862277668756043, 0.15053411454196164
3.0228257452617204, 0.21784206932531025
3.005244958150565, 0.18521119891833804
3.077521527385315, 0.3084314598977156
3.0939860740449685, 0.3604986256988627
3.1390999506961315, 0.44347129984758793
3.118543363978011, 0.40620539934640365
3.160756538409272, 0.5262366137349358
3.176029747230361, 0.5636527757719608
3.1951078162687994, 0.6047504204784089
3.23243743872474, 0.685485221360657
3.206066258058007, 0.6406350734921124
3.267003344027768, 0.7701283248797484
3.28294020934341, 0.8160307816296374
3.3199405384423577, 0.8838134992302451
3.297352908755925, 0.8510173400771169
3.332885881771774, 0.9041696556747085
3.3620197575559736, 0.9717801396993905
3.3803017498552146, 1.0043942344536538
3.3865912671126015, 1.0451522016058075
3.4374393079664696, 1.0872681540356868
3.471461386727872, 1.1098679399440683
3.550011402082936, 1.1187221215963863
3.61471224467062, 1.10934193029544
3.73580708428565, 1.0365663741774807
3.6586875415184554, 1.0929287718486183
3.726057229707938, 1.0694435845335324
3.8192886765095198, 0.9660682896790618
3.920283068269274, 0.907398502903674
4.00148956111604, 0.8811609158132532
4.0738610019019035, 0.8514084769135934
4.172104381257658, 0.8305399970525909
4.291549219380158, 0.8132736960176377
4.4131783249944405, 0.8150084202092146
4.526789784722398, 0.8331665844408235
4.646118421858406, 0.8599112832996302
4.733185177075557, 0.8839153402584203
4.812939217409298, 0.9155624542222933
4.873831473964801, 0.935276955586566
4.969604904703666, 0.9739519020847149
5.04116604912674, 1.0097484558368939
5.126695827106822, 1.0537272734224556
5.100787997660087, 1.033276667742755
5.229475813295116, 1.080842303758231
5.361972009871607, 1.1283422272066246
5.288078436998967, 1.1060887318061747
5.4853079932975595, 1.1410618355358775
5.639409564568746, 1.1312716006362322
5.7180136845143075, 1.1063576618868376
5.830320675563212, 1.0715286572215583
5.93895015685884, 1.0371230145738677
6.061591501728825, 1.0064944461744905
6.181507162899314, 0.9891920638621492
6.298712410307018, 0.9741452015709504
6.433498444825876, 0.9725458718933067
6.527262642752039, 0.975018944122624
6.624542998100432, 0.9879327769085258
6.726511563345134, 1.0002761358608727
7.02018878272216, 1.0243009700369023
7.233111648846155, 1.0254668042492023
7.443796479526689, 1.0182297186517193
7.5846214104372445, 1.0105273718565255
7.684687789973048, 0.9999027062870068
7.797560691861995, 0.9908643939988357
7.9080306150974, 0.9822588326199857
8.027489809570636, 0.9765291866682947
8.168170100247513, 0.9687933873710078
8.302922140978737, 0.9733886346866271
8.44189407719073, 0.9834862034777979
8.560773685275683, 0.9900623879385173
8.689699457424158, 0.9978630528026444
8.818625229572632, 1.0036465964012204
8.97906967305646, 1.0136501040574588
8.894808640387637, 1.0104896554756206
9.076476773869576, 1.0176774681662832
9.19368202127728, 1.0201402607739396
9.340188580536909, 1.0156706963893989
9.445673303203842, 1.0112083216493386
9.628643717212533, 1.0052346397230658
9.756267208834254, 1.0040876284974822
9.894308944669993, 0.9947941795631094
9.978957178908889, 0.9908999469191629
