0.00500000000000     	0.00000000000000	0.00000000000000
0.01500000000000     	0.00000000000000	0.00000000000000
0.02500000000000     	0.00000000000000	0.00000000000000
0.03500000000000     	0.00000000000000	0.00000000000000
0.04500000000000     	0.00000000000000	0.00000000000000
0.05500000000000     	0.00000000000000	0.00000000000000
0.06500000000000     	0.00000000000000	0.00000000000000
0.07500000000000     	0.00000000000000	0.00000000000000
0.08500000000000     	0.00000000000000	0.00000000000000
0.09500000000000     	0.00000000000000	0.00000000000000
0.10500000000000     	0.00000000000000	0.00000000000000
0.11500000000000     	0.00000000000000	0.00000000000000
0.12500000000000     	0.00000000000000	0.00000000000000
0.13500000000000     	0.00000000000000	0.00000000000000
0.14500000000000     	0.00000000000000	0.00000000000000
0.15500000000000     	0.00000000000000	0.00000000000000
0.16500000000000     	0.00000000000000	0.00000000000000
0.17500000000000     	0.00000000000000	0.00000000000000
0.18500000000000     	0.00000000000000	0.00000000000000
0.19500000000000     	0.00000000000000	0.00000000000000
0.20500000000000     	0.00000000000000	0.00000000000000
0.21500000000000     	0.00000000000000	0.00000000000000
0.22500000000000     	0.00000000000000	0.00000000000000
0.23500000000000     	0.00000000000000	0.00000000000000
0.24500000000000     	0.00000000000000	0.00000000000000
0.25500000000000     	0.00000000000000	0.00000000000000
0.26500000000000     	0.00000000000000	0.00000000000000
0.27500000000000     	0.00000000000000	0.00000000000000
0.28500000000000     	0.00000000000000	0.00000000000000
0.29500000000000     	0.00000000000000	0.00000000000000
0.30500000000000     	0.00000000000000	0.00000000000000
0.31500000000000     	0.00000000000000	0.00000000000000
0.32500000000000     	0.00000000000000	0.00000000000000
0.33500000000000     	0.00000000000000	0.00000000000000
0.34500000000000     	0.00000000000000	0.00000000000000
0.35500000000000     	0.00000000000000	0.00000000000000
0.36500000000000     	0.00000000000000	0.00000000000000
0.37500000000000     	0.00000000000000	0.00000000000000
0.38500000000000     	0.00000000000000	0.00000000000000
0.39500000000000     	0.00000000000000	0.00000000000000
0.40500000000000     	0.00000000000000	0.00000000000000
0.41500000000000     	0.00000000000000	0.00000000000000
0.42500000000000     	0.00000000000000	0.00000000000000
0.43500000000000     	0.00000000000000	0.00000000000000
0.44500000000000     	0.00000000000000	0.00000000000000
0.45500000000000     	0.00000000000000	0.00000000000000
0.46500000000000     	0.00000000000000	0.00000000000000
0.47500000000000     	0.00000000000000	0.00000000000000
0.48500000000000     	0.00000000000000	0.00000000000000
0.49500000000000     	0.00000000000000	0.00000000000000
0.50500000000000     	0.00000000000000	0.00000000000000
0.51500000000000     	0.00000000000000	0.00000000000000
0.52500000000000     	0.00000000000000	0.00000000000000
0.53500000000000     	0.00000000000000	0.00000000000000
0.54500000000000     	0.00000000000000	0.00000000000000
0.55500000000000     	0.00000000000000	0.00000000000000
0.56500000000000     	0.00000000000000	0.00000000000000
0.57500000000000     	0.00000000000000	0.00000000000000
0.58500000000000     	0.00000000000000	0.00000000000000
0.59500000000000     	0.00000000000000	0.00000000000000
0.60500000000000     	0.00000000000000	0.00000000000000
0.61500000000000     	0.00000000000000	0.00000000000000
0.62500000000000     	0.00000000000000	0.00000000000000
0.63500000000000     	0.00000000000000	0.00000000000000
0.64500000000000     	0.00000000000000	0.00000000000000
0.65500000000000     	0.00000000000000	0.00000000000000
0.66500000000000     	0.00000000000000	0.00000000000000
0.67500000000000     	0.00000000000000	0.00000000000000
0.68500000000000     	0.00000000000000	0.00000000000000
0.69500000000000     	0.00000000000000	0.00000000000000
0.70500000000000     	0.00000000000000	0.00000000000000
0.71500000000000     	0.00000000000000	0.00000000000000
0.72500000000000     	0.00000000000000	0.00000000000000
0.73500000000000     	0.00000000000000	0.00000000000000
0.74500000000000     	0.00000000000000	0.00000000000000
0.75500000000000     	0.00000000000000	0.00000000000000
0.76500000000000     	0.00000000000000	0.00000000000000
0.77500000000000     	0.00000000000000	0.00000000000000
0.78500000000000     	0.00000000000000	0.00000000000000
0.79500000000000     	0.00000000000000	0.00000000000000
0.80500000000000     	0.00000000000000	0.00000000000000
0.81500000000000     	0.00000000000000	0.00000000000000
0.82500000000000     	0.00000000000000	0.00000000000000
0.83500000000000     	0.00000000000000	0.00000000000000
0.84500000000000     	0.00000000000000	0.00000000000000
0.85500000000000     	0.00000000000000	0.00000000000000
0.86500000000000     	0.00000000000000	0.00000000000000
0.87500000000000     	0.00000000000000	0.00000000000000
0.88500000000000     	0.00000000000000	0.00000000000000
0.89500000000000     	0.00000000000000	0.00000000000000
0.90500000000000     	0.00000000000000	0.00000000000000
0.91500000000000     	0.00000000000000	0.00000000000000
0.92500000000000     	0.00000000000000	0.00000000000000
0.93500000000000     	0.00000000000000	0.00000000000000
0.94500000000000     	0.00000000000000	0.00000000000000
0.95500000000000     	0.00000000000000	0.00000000000000
0.96500000000000     	0.00000000000000	0.00000000000000
0.97500000000000     	0.00000000000000	0.00000000000000
0.98500000000000     	0.00000000000000	0.00000000000000
0.99500000000000     	0.00000000000000	0.00000000000000
1.00500000000000     	0.00000000000000	0.00000000000000
1.01500000000000     	0.00000000000000	0.00000000000000
1.02500000000000     	0.00000000000000	0.00000000000000
1.03500000000000     	0.00000000000000	0.00000000000000
1.04500000000000     	0.00000000000000	0.00000000000000
1.05500000000000     	0.00000000000000	0.00000000000000
1.06500000000000     	0.00000000000000	0.00000000000000
1.07500000000000     	0.00000000000000	0.00000000000000
1.08500000000000     	0.00000000000000	0.00000000000000
1.09500000000000     	0.00000000000000	0.00000000000000
1.10500000000000     	0.00000000000000	0.00000000000000
1.11500000000000     	0.00000000000000	0.00000000000000
1.12500000000000     	0.00000000000000	0.00000000000000
1.13500000000000     	0.00000000000000	0.00000000000000
1.14500000000000     	0.00000000000000	0.00000000000000
1.15500000000000     	0.00000000000000	0.00000000000000
1.16500000000000     	0.00000000000000	0.00000000000000
1.17500000000000     	0.00000000000000	0.00000000000000
1.18500000000000     	0.00000000000000	0.00000000000000
1.19500000000000     	0.00000000000000	0.00000000000000
1.20500000000000     	0.00000000000000	0.00000000000000
1.21500000000000     	0.00000000000000	0.00000000000000
1.22500000000000     	0.00000000000000	0.00000000000000
1.23500000000000     	0.00000000000000	0.00000000000000
1.24500000000000     	0.00000000000000	0.00000000000000
1.25500000000000     	0.00000000000000	0.00000000000000
1.26500000000000     	0.00000000000000	0.00000000000000
1.27500000000000     	0.00000000000000	0.00000000000000
1.28500000000000     	0.00000000000000	0.00000000000000
1.29500000000000     	0.00000000000000	0.00000000000000
1.30500000000000     	0.00000000000000	0.00000000000000
1.31500000000000     	0.00000000000000	0.00000000000000
1.32500000000000     	0.00000000000000	0.00000000000000
1.33500000000000     	0.00000000000000	0.00000000000000
1.34500000000000     	0.00000000000000	0.00000000000000
1.35500000000000     	0.00000000000000	0.00000000000000
1.36500000000000     	0.00000000000000	0.00000000000000
1.37500000000000     	0.00000000000000	0.00000000000000
1.38500000000000     	0.00000000000000	0.00000000000000
1.39500000000000     	0.00000000000000	0.00000000000000
1.40500000000000     	0.00000000000000	0.00000000000000
1.41500000000000     	0.00000000000000	0.00000000000000
1.42500000000000     	0.00000000000000	0.00000000000000
1.43500000000000     	0.00000000000000	0.00000000000000
1.44500000000000     	0.00000000000000	0.00000000000000
1.45500000000000     	0.00000000000000	0.00000000000000
1.46500000000000     	0.00000000000000	0.00000000000000
1.47500000000000     	0.00000000000000	0.00000000000000
1.48500000000000     	0.00000000000000	0.00000000000000
1.49500000000000     	0.00000000000000	0.00000000000000
1.50500000000000     	0.00000000000000	0.00000000000000
1.51500000000000     	0.00000000000000	0.00000000000000
1.52500000000000     	0.00000000000000	0.00000000000000
1.53500000000000     	0.00000000000000	0.00000000000000
1.54500000000000     	0.00000000000000	0.00000000000000
1.55500000000000     	0.00000000000000	0.00000000000000
1.56500000000000     	0.00000000000000	0.00000000000000
1.57500000000000     	0.00000000000000	0.00000000000000
1.58500000000000     	0.00000000000000	0.00000000000000
1.59500000000000     	0.00000000000000	0.00000000000000
1.60500000000000     	0.00000000000000	0.00000000000000
1.61500000000000     	0.00000000000000	0.00000000000000
1.62500000000000     	0.00000000000000	0.00000000000000
1.63500000000000     	0.00000000000000	0.00000000000000
1.64500000000000     	0.00000000000000	0.00000000000000
1.65500000000000     	0.00000000000000	0.00000000000000
1.66500000000000     	0.00000000000000	0.00000000000000
1.67500000000000     	0.00000000000000	0.00000000000000
1.68500000000000     	0.00000000000000	0.00000000000000
1.69500000000000     	0.00000000000000	0.00000000000000
1.70500000000000     	0.00000000000000	0.00000000000000
1.71500000000000     	0.00000000000000	0.00000000000000
1.72500000000000     	0.00000000000000	0.00000000000000
1.73500000000000     	0.00000000000000	0.00000000000000
1.74500000000000     	0.00000000000000	0.00000000000000
1.75500000000000     	0.00000000000000	0.00000000000000
1.76500000000000     	0.00000000000000	0.00000000000000
1.77500000000000     	0.00000000000000	0.00000000000000
1.78500000000000     	0.00000000000000	0.00000000000000
1.79500000000000     	0.00000000000000	0.00000000000000
1.80500000000000     	0.00000000000000	0.00000000000000
1.81500000000000     	0.00000000000000	0.00000000000000
1.82500000000000     	0.00000000000000	0.00000000000000
1.83500000000000     	0.00000000000000	0.00000000000000
1.84500000000000     	0.00000000000000	0.00000000000000
1.85500000000000     	0.00000000000000	0.00000000000000
1.86500000000000     	0.00000000000000	0.00000000000000
1.87500000000000     	0.00000000000000	0.00000000000000
1.88500000000000     	0.00000000000000	0.00000000000000
1.89500000000000     	0.00000000000000	0.00000000000000
1.90500000000000     	0.00000000000000	0.00000000000000
1.91500000000000     	0.00000000000000	0.00000000000000
1.92500000000000     	0.00000000000000	0.00000000000000
1.93500000000000     	0.00000000000000	0.00000000000000
1.94500000000000     	0.00000000000000	0.00000000000000
1.95500000000000     	0.00000000000000	0.00000000000000
1.96500000000000     	0.00000000000000	0.00000000000000
1.97500000000000     	0.00000000000000	0.00000000000000
1.98500000000000     	0.00000000000000	0.00000000000000
1.99500000000000     	0.00000000000000	0.00000000000000
2.00500000000000     	0.00000000000000	0.00000000000000
2.01500000000000     	0.00000000000000	0.00000000000000
2.02500000000000     	0.00000000000000	0.00000000000000
2.03500000000000     	0.00000000000000	0.00000000000000
2.04500000000000     	0.00000000000000	0.00000000000000
2.05500000000000     	0.00000000000000	0.00000000000000
2.06500000000000     	0.00000000000000	0.00000000000000
2.07500000000000     	0.00000000000000	0.00000000000000
2.08500000000000     	0.00000000000000	0.00000000000000
2.09500000000000     	0.00000000000000	0.00000000000000
2.10500000000000     	0.00000000000000	0.00000000000000
2.11500000000000     	0.00000000000000	0.00000000000000
2.12500000000000     	0.00000000000000	0.00000000000000
2.13500000000000     	0.00000000000000	0.00000000000000
2.14500000000000     	0.00000000000000	0.00000000000000
2.15500000000000     	0.00000000000000	0.00000000000000
2.16500000000000     	0.00000000000000	0.00000000000000
2.17500000000000     	0.00000000000000	0.00000000000000
2.18500000000000     	0.00000000000000	0.00000000000000
2.19500000000000     	0.00000000000000	0.00000000000000
2.20500000000000     	0.00000000000000	0.00000000000000
2.21500000000000     	0.00000000000000	0.00000000000000
2.22500000000000     	0.00000000000000	0.00000000000000
2.23500000000000     	0.00000000000000	0.00000000000000
2.24500000000000     	0.00000000000000	0.00000000000000
2.25500000000000     	0.00000000000000	0.00000000000000
2.26500000000000     	0.00000000000000	0.00000000000000
2.27500000000000     	0.00000000000000	0.00000000000000
2.28500000000000     	0.00000000000000	0.00000000000000
2.29500000000000     	0.00000000000000	0.00000000000000
2.30500000000000     	0.00000000000000	0.00000000000000
2.31500000000000     	0.00000000000000	0.00000000000000
2.32500000000000     	0.00000000000000	0.00000000000000
2.33500000000000     	0.00000000000000	0.00000000000000
2.34500000000000     	0.00000000000000	0.00000000000000
2.35500000000000     	0.00000000000000	0.00000000000000
2.36500000000000     	0.00000000000000	0.00000000000000
2.37500000000000     	0.00000000000000	0.00000000000000
2.38500000000000     	0.00014923164258	0.00000349956255
2.39500000000000     	0.00000000000000	0.00000349956255
2.40500000000000     	0.00014675994325	0.00000699912511
2.41500000000000     	0.00000000000000	0.00000699912511
2.42500000000000     	0.00115479317361	0.00003499562555
2.43500000000000     	0.00157482559988	0.00007349081365
2.44500000000000     	0.00227195629438	0.00012948381452
2.45500000000000     	0.00535202736698	0.00026246719160
2.46500000000000     	0.00936006106576	0.00049693788276
2.47500000000000     	0.01552048711441	0.00088888888889
2.48500000000000     	0.02460582783929	0.00151531058618
2.49500000000000     	0.04159072398069	0.00258267716535
2.50500000000000     	0.06682657974332	0.00431146106737
2.51500000000000     	0.09380779916520	0.00675765529309
2.52500000000000     	0.13740251655753	0.01036920384952
2.53500000000000     	0.20157485931468	0.01570953630796
2.54500000000000     	0.26630903063286	0.02282064741907
2.55500000000000     	0.34380913344887	0.03207349081365
2.56500000000000     	0.46770395692253	0.04475940507437
2.57500000000000     	0.58569889961123	0.06076990376203
2.58500000000000     	0.74581096853213	0.08131583552056
2.59500000000000     	0.87344109574294	0.10556430446194
2.60500000000000     	1.06676688418835	0.13540857392826
2.61500000000000     	1.26319821966825	0.17102012248468
2.62500000000000     	1.45636467584710	0.21239195100612
2.63500000000000     	1.64571219056333	0.25949956255468
2.64500000000000     	1.86552716167672	0.31330533683289
2.65500000000000     	2.09704281814508	0.37424671916008
2.66500000000000     	2.25511790698043	0.44027646544180
2.67500000000000     	2.44185581798282	0.51231146106736
2.68500000000000     	2.59937911706488	0.58956780402449
2.69500000000000     	2.74819027714918	0.67185651793523
2.70500000000000     	2.88962939006345	0.75902362204719
2.71500000000000     	2.97524983174249	0.84943832020991
2.72500000000000     	3.07839998312307	0.94367804024494
2.73500000000000     	3.13525323357344	1.04036395450571
2.74500000000000     	3.15548596756148	1.13838670166234
2.75500000000000     	3.21224984570491	1.23890113735787
2.76500000000000     	3.19272085821037	1.33953105861769
2.77500000000000     	3.16346845820556	1.43996150481190
2.78500000000000     	3.13597587631997	1.54023797025370
2.79500000000000     	3.07087231840331	1.63913910761151
2.80500000000000     	3.04362128108129	1.73786526684159
2.81500000000000     	2.95690487022371	1.83446369203844
2.82500000000000     	2.87261423924164	1.92897637795271
2.83500000000000     	2.82661422093733	2.02263517060369
2.84500000000000     	2.71627100496743	2.11327384076997
2.85500000000000     	2.60094488835259	2.20067541557313
2.86500000000000     	2.50132793491741	2.28531933508319
2.87500000000000     	2.42521438898253	2.36796150481198
2.88500000000000     	2.29787669220037	2.44681014873147
2.89500000000000     	2.25680961900682	2.52478740157486
2.90500000000000     	2.12864054473542	2.59884514435700
2.91500000000000     	2.03104487251246	2.66999475065619
2.92500000000000     	1.94286759450670	2.73852318460195
2.93500000000000     	1.86165682942289	2.80463692038495
2.94500000000000     	1.75752329224567	2.86747856517935
2.95500000000000     	1.72416417686592	2.92954680664917
2.96500000000000     	1.63530724261852	2.98881539807524
2.97500000000000     	1.53810896123420	3.04493788276465
2.98500000000000     	1.47180277806474	3.09900262467191
2.99500000000000     	1.41363314847206	3.15127909011372
3.00500000000000     	1.36927057168987	3.20225371828520
3.01500000000000     	1.31920787858124	3.25169203849516
3.02500000000000     	1.26671488307717	3.29947856517933
3.03500000000000     	1.23119543533610	3.34623272090984
3.04500000000000     	1.15949407068825	3.39055468066486
3.05500000000000     	1.12426609010549	3.43381277340327
3.06500000000000     	1.08432189017496	3.47580752405942
3.07500000000000     	1.06731601577160	3.51741382327202
3.08500000000000     	1.02151998121708	3.55749431321078
3.09500000000000     	0.99658585079912	3.59685039370071
3.10500000000000     	0.98330929196825	3.63593350831137
3.11500000000000     	0.95880966119880	3.67428871391065
3.12500000000000     	0.92886602523598	3.71168503936997
3.13500000000000     	0.90317097373804	3.74827996500426
3.14500000000000     	0.88439168948554	3.78434295713024
3.15500000000000     	0.86830504473220	3.81997550306199
3.16500000000000     	0.84867515015891	3.85502362204712
3.17500000000000     	0.83500105093003	3.88972528433933
3.18500000000000     	0.79972501024577	3.92317060367443
3.19500000000000     	0.80836441253588	3.95718985126853
3.20500000000000     	0.80952577051537	3.99147156605423
3.21500000000000     	0.77936738960861	4.02468241469819
3.22500000000000     	0.79233402113954	4.05865616797908
3.23500000000000     	0.77860179050559	4.09224846894150
3.24500000000000     	0.78727288930534	4.12642519685053
3.25500000000000     	0.76617883469212	4.15989151356094
3.26500000000000     	0.78960179990181	4.19459317585315
3.27500000000000     	0.76547615023799	4.22844094488202
3.28500000000000     	0.75586708242450	4.26206824146993
3.29500000000000     	0.73893274832350	4.29514260717422
3.30500000000000     	0.75848130528997	4.32929833770791
3.31500000000000     	0.77275995852623	4.36430796150491
3.32500000000000     	0.75967284345162	4.39893263342091
3.33500000000000     	0.75565816769279	4.43358180227480
3.34500000000000     	0.76131279956423	4.46869991251103
3.35500000000000     	0.76681127369743	4.50428346456700
3.36500000000000     	0.75356435172646	4.53946106736665
3.37500000000000     	0.76736354418643	4.57549606299219
3.38500000000000     	0.76335492231384	4.61155555555562
3.39500000000000     	0.75172079745783	4.64727559055123
3.40500000000000     	0.76217466249727	4.68370603674545
3.41500000000000     	0.77183828173041	4.72081539807526
3.42500000000000     	0.76458798386543	4.75779177602804
3.43500000000000     	0.77258874149813	4.79537357830274
3.44500000000000     	0.77490488033654	4.83328783902016
3.45500000000000     	0.77227458172136	4.87129308836394
3.46500000000000     	0.77666119057269	4.90973578302712
3.47500000000000     	0.79616844692461	4.94937182852144
3.48500000000000     	0.79097685432129	4.98897637795275
3.49500000000000     	0.78492814374496	5.02850393700785
3.50500000000000     	0.79158031934107	5.06859492563429
3.51500000000000     	0.79484636362492	5.10908136482939
3.52500000000000     	0.81063272546631	5.15060717410321
3.53500000000000     	0.81250620584327	5.19246544181977
3.54500000000000     	0.80076874464171	5.23395275590550
3.55500000000000     	0.82374154053472	5.27687139107606
3.56500000000000     	0.81865921599014	5.31976552930879
3.57500000000000     	0.82418125230122	5.36319160104983
3.58500000000000     	0.83530915098724	5.40745056867884
3.59500000000000     	0.83125968623757	5.45174103237090
3.60500000000000     	0.84448597462881	5.49698687664033
3.61500000000000     	0.83598789502190	5.54202624671907
3.62500000000000     	0.84875889294460	5.58800699912500
3.63500000000000     	0.84056200160843	5.63379527559044
3.64500000000000     	0.85429305026509	5.68058792650905
3.65500000000000     	0.86131658671984	5.72802449693777
3.66500000000000     	0.87893098891915	5.77669641294826
3.67500000000000     	0.86711470871477	5.82497637795266
3.68500000000000     	0.86716582000392	5.87352230971120
3.69500000000000     	0.87248847100095	5.92263167104105
3.70500000000000     	0.88145143360055	5.97251443569552
3.71500000000000     	0.90045393556046	6.02374803149607
3.72500000000000     	0.89030340963155	6.07467716535440
3.73500000000000     	0.89789488405841	6.12631671041129
3.74500000000000     	0.89679814451171	6.17816972878401
3.75500000000000     	0.90545322342594	6.23080314960643
3.76500000000000     	0.91047068438321	6.28401049868777
3.77500000000000     	0.92721656640576	6.33848468941394
3.78500000000000     	0.92890063617009	6.39334733158366
3.79500000000000     	0.91811763733934	6.44786001749790
3.80500000000000     	0.93505030683260	6.50367104111995
3.81500000000000     	0.93464573215259	6.55975153105871
3.82500000000000     	0.94461812022990	6.61672790901145
3.83500000000000     	0.95966849242872	6.67491513560810
3.84500000000000     	0.95525738926687	6.73313735783031
3.85500000000000     	0.96116070808509	6.79202449693792
3.86500000000000     	0.96670609663118	6.85155905511814
3.87500000000000     	0.96132736228730	6.91106911636046
3.88500000000000     	0.97539440547533	6.97176202974630
3.89500000000000     	0.97705079754465	7.03287139107612
3.90500000000000     	0.97594977995359	7.09422572178476
3.91500000000000     	0.99345585357335	7.15700087489062
3.92500000000000     	0.99661014500590	7.22029746281712
3.93500000000000     	0.99138675752091	7.28358355205593
3.94500000000000     	1.00409376973911	7.34800699912507
3.95500000000000     	1.00417807530963	7.41276290463685
3.96500000000000     	1.00279089889360	7.47775678040237
3.97500000000000     	1.01950975316770	7.54416797900251
3.98500000000000     	1.02166920396638	7.61105511811012
3.99500000000000     	1.02533670408468	7.67851968503926
4.00500000000000     	1.03445872928474	7.74692563429559
4.01500000000000     	1.02678457972939	7.81516360454931
4.02500000000000     	1.04123296193544	7.88470691163596
4.03500000000000     	1.03102100682800	7.95391076115483
4.04500000000000     	1.05072825720832	8.02478740157484
4.05500000000000     	1.05014685250589	8.09597550306219
4.06500000000000     	1.06728139793882	8.16868241469827
4.07500000000000     	1.06373656593591	8.24150481189865
4.08500000000000     	1.05655103594832	8.31419072615935
4.09500000000000     	1.08278212791574	8.38904636920396
4.10500000000000     	1.08255058756814	8.46425196850406
4.11500000000000     	1.08205785592144	8.53979002624681
4.12500000000000     	1.07911269344793	8.61548906386708
4.13500000000000     	1.08924031241873	8.69226946631676
4.14500000000000     	1.11195536960242	8.77103062117241
4.15500000000000     	1.08374560922905	8.84816447944012
4.16500000000000     	1.10663574539219	8.92730708661417
4.17500000000000     	1.10314273185302	9.00657917760280
4.18500000000000     	1.10194838197369	9.08614523184601
4.19500000000000     	1.09597747383435	9.16565879265088
4.20500000000000     	1.11938321394466	9.24725809273838
4.21500000000000     	1.11149798910336	9.32866841644789
4.22500000000000     	1.12274383758755	9.41129308836386
4.23500000000000     	1.12255946457182	9.49429571303580
4.24500000000000     	1.11727684156911	9.57729833770767
4.25500000000000     	1.12426854799185	9.66121434820634
4.26500000000000     	1.11746268666271	9.74501487314073
4.27500000000000     	1.12389932553311	9.82969378827633
4.28500000000000     	1.13618138865234	9.91569903762021
4.29500000000000     	1.13660285603820	10.00213823272090
4.30500000000000     	1.13966471185205	10.08921434820655
4.31500000000000     	1.12978383224521	10.17593700787416
4.32500000000000     	1.11172285866885	10.26166929133873
4.33500000000000     	1.13239237506319	10.34939982502197
4.34500000000000     	1.14301307838081	10.43836220472452
4.35500000000000     	1.13602438194465	10.52718810148743
4.36500000000000     	1.14004751041454	10.61673840769913
4.37500000000000     	1.13932105338503	10.70664216972882
4.38500000000000     	1.14163548464801	10.79714085739284
4.39500000000000     	1.14650989914476	10.88844094488192
4.40500000000000     	1.14332266958845	10.97990201224848
4.41500000000000     	1.14437675866711	11.07186351706033
4.42500000000000     	1.14410908459566	11.16422047244092
4.43500000000000     	1.14378902882280	11.25696937882758
4.44500000000000     	1.15110768290553	11.35073315835515
4.45500000000000     	1.15077882236260	11.44489238845131
4.46500000000000     	1.14971751414839	11.53938757655284
4.47500000000000     	1.14166002168681	11.63364129483796
4.48500000000000     	1.14463489959038	11.72856342957117
4.49500000000000     	1.14463115690260	11.82390901137346
4.50500000000000     	1.14867331019911	11.92001749781268
4.51500000000000     	1.13193117337672	12.01514610673664
4.52500000000000     	1.12826032637862	12.11038670166236
4.53500000000000     	1.13109093642726	12.20628871391087
4.54500000000000     	1.12944766850111	12.30247419072631
4.55500000000000     	1.13529499209091	12.39958355205608
4.56500000000000     	1.13965460761618	12.49749431321095
4.57500000000000     	1.14522253821707	12.59631496063000
4.58500000000000     	1.12295010208378	12.69363779527567
4.59500000000000     	1.13286271697342	12.79224846894141
4.60500000000000     	1.13611391286262	12.89157305336832
4.61500000000000     	1.13342761981367	12.99109361329834
4.62500000000000     	1.12615057598481	13.09040419947501
4.63500000000000     	1.12761854687964	13.19027471566052
4.64500000000000     	1.11722122877162	13.28965179352578
4.65500000000000     	1.11975184785265	13.38968328958871
4.66500000000000     	1.10965148601205	13.48923884514429
4.67500000000000     	1.10479287402933	13.58878390201215
4.68500000000000     	1.11121971970183	13.68933683289572
4.69500000000000     	1.10891722568908	13.79011023622039
4.70500000000000     	1.09814980299901	13.89033070866131
4.71500000000000     	1.09277114796353	13.99048468941386
4.72500000000000     	1.10495626567189	14.09218547681546
4.73500000000000     	1.11536290000457	14.19527909011387
4.74500000000000     	1.09724468873616	14.29712685914270
4.75500000000000     	1.10712629355797	14.40032545931776
4.76500000000000     	1.10831652241134	14.50406999125120
4.77500000000000     	1.09511635359604	14.60700962379710
4.78500000000000     	1.08450072011284	14.70937882764666
4.79500000000000     	1.08574148371051	14.81229396325459
4.80500000000000     	1.07865332300253	14.91496412948383
4.81500000000000     	1.08347751137508	15.01852318460191
4.82500000000000     	1.07436036201191	15.12163779527556
4.83500000000000     	1.07997917185946	15.22572178477685
4.84500000000000     	1.07635737830814	15.32988626421691
4.85500000000000     	1.07095557844665	15.43395625546799
4.86500000000000     	1.06580424192791	15.53795275590541
4.87500000000000     	1.06932990854434	15.64272265966740
4.88500000000000     	1.06445836833416	15.74744356955369
4.89500000000000     	1.05051296467880	15.85121609798770
4.90500000000000     	1.04679841643236	15.95504461942255
4.91500000000000     	1.05607171308231	16.06022047244096
4.92500000000000     	1.04272333612249	16.16448993875775
4.93500000000000     	1.05610351518543	16.27052668416464
4.94500000000000     	1.03920051322970	16.37528958880150
4.95500000000000     	1.04420690430588	16.48098337707800
4.96500000000000     	1.03714676787936	16.58638670166238
4.97500000000000     	1.03428479903871	16.69192300962386
4.98500000000000     	1.03434095769345	16.79788976377960
4.99500000000000     	1.02629100315735	16.90345406824148
5.00500000000000     	1.02195683123444	17.00899387576555
5.01500000000000     	1.02949589768682	17.11573753280841
5.02500000000000     	1.02304925160706	17.22223622047240
5.03500000000000     	1.02099858646569	17.32894488188965
5.04500000000000     	1.00928417974354	17.43484864391937
5.05500000000000     	1.01140734639169	17.54139632545921
5.06500000000000     	0.99990645142169	17.64714960629906
5.07500000000000     	0.99402527148589	17.75269641294820
5.08500000000000     	1.00554906052894	17.85988801399821
5.09500000000000     	1.00121333408787	17.96703762029745
5.10500000000000     	0.99465635015737	18.07390376202981
5.11500000000000     	0.99346390834111	18.18106036745410
5.12500000000000     	0.98409662411359	18.28762204724428
5.13500000000000     	0.98883071517610	18.39511461067378
5.14500000000000     	0.98338721714974	18.50243219597563
5.15500000000000     	0.98229083073809	18.61004724409457
5.16500000000000     	0.97505433185076	18.71728433945765
5.17500000000000     	0.97052892118933	18.82443744531939
5.18500000000000     	0.96985168599183	18.93193000874900
5.19500000000000     	0.97216053746460	19.04009448818895
5.20500000000000     	0.96423006863075	19.14779002624664
5.21500000000000     	0.96240845942779	19.25569553805773
5.22500000000000     	0.96009622701064	19.36375503062111
5.23500000000000     	0.95835216332282	19.47203149606295
5.24500000000000     	0.95766353006208	19.58064391950984
5.25500000000000     	0.95393001061906	19.68924584426928
5.26500000000000     	0.96118079468682	19.79909011373566
5.27500000000000     	0.95149966346253	19.90824146981624
5.28500000000000     	0.95331195362525	20.01801574803153
5.29500000000000     	0.94592998661398	20.12735258092743
5.30500000000000     	0.95425119327690	20.23806824146994
5.31500000000000     	0.93452741334440	20.34690463692058
5.32500000000000     	0.93230801141178	20.45589151356090
5.33500000000000     	0.93949330218378	20.56613123359588
5.34500000000000     	0.93645658570821	20.67642694663170
5.35500000000000     	0.93198548684658	20.78660717410334
5.36500000000000     	0.92470998899522	20.89633595800536
5.37500000000000     	0.92042033154476	21.00596325459323
5.38500000000000     	0.93345645560367	21.11755730533674
5.39500000000000     	0.93437389613358	21.22967629046360
5.40500000000000     	0.92336490185735	21.34088538932626
5.41500000000000     	0.92664499289910	21.45290288713912
5.42500000000000     	0.91763641980622	21.56424146981613
5.43500000000000     	0.92713686738088	21.67714785651776
5.44500000000000     	0.92244612153020	21.78989676290452
5.45500000000000     	0.91558696718460	21.90221872265966
5.46500000000000     	0.91343303665231	22.01468766404201
5.47500000000000     	0.90452060238368	22.12646719160113
5.48500000000000     	0.91651815097503	22.24014348206477
5.49500000000000     	0.91132992210661	22.35358880140002
5.50500000000000     	0.90522094576041	22.46668416447960
5.51500000000000     	0.89781060379445	22.57926159230103
5.52500000000000     	0.90337876755591	22.69294838145230
5.53500000000000     	0.90230639669887	22.80691163604558
5.54500000000000     	0.89993830196122	22.92098687664050
5.55500000000000     	0.90371583600474	23.03595450568679
5.56500000000000     	0.90033384970057	23.15090463692024
5.57500000000000     	0.89724340853081	23.26587226596675
5.58500000000000     	0.90143543774602	23.38179177602797
5.59500000000000     	0.90163274244683	23.49815223097104
5.60500000000000     	0.89749968543406	23.61439370078719
5.61500000000000     	0.90267908648476	23.73172353455798
5.62500000000000     	0.89960655610027	23.84907086614170
5.63500000000000     	0.89368968252001	23.96606124234472
5.64500000000000     	0.89984966933303	24.08427646544180
5.65500000000000     	0.89499769433895	24.20227121609813
5.66500000000000     	0.90115141162813	24.32149781277354
5.67500000000000     	0.90264364837088	24.44134383202123
5.68500000000000     	0.88657480368845	24.55947156605421
5.69500000000000     	0.90073808866647	24.67990901137359
5.70500000000000     	0.89166271891688	24.79955205599303
5.71500000000000     	0.89200168600617	24.91966054243235
5.72500000000000     	0.90235585654525	25.04158880139979
5.73500000000000     	0.90135391060835	25.16380752405943
5.74500000000000     	0.90642320758987	25.28714260717408
5.75500000000000     	0.90360909714842	25.41052318460189
5.76500000000000     	0.90103891055603	25.53398075240585
5.77500000000000     	0.90222264201785	25.65802974628154
5.78500000000000     	0.90712143694740	25.78318460192466
5.79500000000000     	0.91412964759269	25.90974278215220
5.80500000000000     	0.90916920154718	26.03604899387572
5.81500000000000     	0.91809471671691	26.16403499562562
5.82500000000000     	0.90936623280838	26.29124059492584
5.83500000000000     	0.90899448400245	26.41883114610689
5.84500000000000     	0.91383776617139	26.54754155730543
5.85500000000000     	0.91314553770658	26.67659492563429
5.86500000000000     	0.92153405441669	26.80727909011382
5.87500000000000     	0.92292481412944	26.93860717410332
5.88500000000000     	0.93052637555916	27.07146806649160
5.89500000000000     	0.92475836007836	27.20395450568672
5.90500000000000     	0.92080118481355	27.33632195975501
5.91500000000000     	0.92069887566695	27.46912335958000
5.92500000000000     	0.92668544388882	27.60324059492545
5.93500000000000     	0.93026478114220	27.73833070866132
5.94500000000000     	0.93285409687030	27.87425371828520
5.95500000000000     	0.93017852514083	28.01024321959753
5.96500000000000     	0.93720161197554	28.14772003499560
5.97500000000000     	0.94502849322551	28.28681014873159
5.98500000000000     	0.93912418554970	28.42549431321098
5.99500000000000     	0.94730723227159	28.56585476815404
6.00500000000000     	0.95119335149806	28.70726159230105
6.01500000000000     	0.94373967854227	28.84802799650063
6.02500000000000     	0.94841988486229	28.98996325459315
6.03500000000000     	0.95541790646073	29.13342082239711
6.04500000000000     	0.95799726551721	29.27774278215223
6.05500000000000     	0.95909573930666	29.42270866141726
6.06500000000000     	0.96692020719653	29.56934033245826
6.07500000000000     	0.96390055810069	29.71599650043737
6.08500000000000     	0.97105147514134	29.86422747156610
6.09500000000000     	0.97054118099008	30.01286789151347
6.10500000000000     	0.96351523926291	30.16091688538933
6.11500000000000     	0.96533802205282	30.30973228346466
6.12500000000000     	0.98114985684594	30.46148031496068
6.13500000000000     	0.97468371087051	30.61272090988641
6.14500000000000     	0.97733630567605	30.76486789151384
6.15500000000000     	0.97586606436288	30.91728083989519
6.16500000000000     	0.98806879447402	31.07210148731395
6.17500000000000     	0.98660760013027	31.22719510061224
6.18500000000000     	0.98435183947583	31.38243569553786
6.19500000000000     	0.99115195573218	31.53925459317571
6.20500000000000     	0.99404488691719	31.69703937007888
6.21500000000000     	0.98974978535478	31.85464916885402
6.22500000000000     	1.00135884978863	32.01462117235343
6.23500000000000     	1.00240731284716	32.17527559055105
6.24500000000000     	0.99941726954108	32.33596500437434
6.25500000000000     	1.00390469933395	32.49789326334226
6.26500000000000     	1.00375185979844	32.66031496063018
6.27500000000000     	1.00102947904510	32.82281364829430
6.28500000000000     	1.01385628558896	32.98791951006135
6.29500000000000     	1.01511475828948	33.15375678040219
6.30500000000000     	1.00856614338646	33.31904811898471
6.31500000000000     	1.02016816465480	33.48677165354320
6.32500000000000     	1.01836653486021	33.65472965879277
6.33500000000000     	1.01938436202910	33.82338757655317
6.34500000000000     	1.02911993624260	33.99419422572183
6.35500000000000     	1.02371878026169	34.16464041994725
6.36500000000000     	1.02492562939008	34.33582502187202
6.37500000000000     	1.02465777814455	34.50750306211732
6.38500000000000     	1.02344959849809	34.67951706036791
6.39500000000000     	1.03006921370793	34.85318635170637
6.40500000000000     	1.04417437596405	35.02978477690279
6.41500000000000     	1.03562025196538	35.20548381452272
6.42500000000000     	1.03394128523262	35.38144531933460
6.43500000000000     	1.03415368969976	35.55799125109358
6.44500000000000     	1.03599466545991	35.73540157480355
6.45500000000000     	1.03019993826660	35.91236745406852
6.46500000000000     	1.04082591881774	36.09171303587033
6.47500000000000     	1.04000263073571	36.27147156605385
6.48500000000000     	1.04018869268962	36.45181802274704
6.49500000000000     	1.05079208572502	36.63456517935315
6.50500000000000     	1.04186664169126	36.81631846019305
6.51500000000000     	1.05926975721408	37.00167629046371
6.52500000000000     	1.04950578181748	37.18588976377890
6.53500000000000     	1.05349169782454	37.37137007873969
6.54500000000000     	1.04863019264135	37.55655993000876
6.55500000000000     	1.04881137984485	37.74234820647465
6.56500000000000     	1.04654434587453	37.92830096238004
6.57500000000000     	1.05549823446259	38.11641644794367
6.58500000000000     	1.05869629604072	38.30567629046325
6.59500000000000     	1.06514894451956	38.49666841644797
6.60500000000000     	1.05704221101681	38.68678215223159
6.61500000000000     	1.04847521935446	38.87592650918693
6.62500000000000     	1.05769028572802	39.06731058617640
6.63500000000000     	1.06512896139468	39.26062292213406
6.64500000000000     	1.05302476396907	39.45231496062961
6.65500000000000     	1.05689662410362	39.64529133858304
6.66500000000000     	1.05695694196017	39.83885914260767
6.67500000000000     	1.05211584539289	40.03211898512676
6.68500000000000     	1.05482091662336	40.22645669291288
6.69500000000000     	1.06735297092378	40.42369203849498
6.70500000000000     	1.06613528825979	40.62129133858328
6.71500000000000     	1.06428005296818	40.81913560804961
6.72500000000000     	1.05621841133658	41.01606649168846
6.73500000000000     	1.06545408633015	41.21531058617614
6.74500000000000     	1.05897599294049	41.41393175852955
6.75500000000000     	1.05801950396549	41.61296237970282
6.76500000000000     	1.05943821282482	41.81285039370131
6.77500000000000     	1.06128778622763	42.01367979002630
6.78500000000000     	1.06201551814960	42.21524059492512
6.79500000000000     	1.06847043523823	42.41862467191576
6.80500000000000     	1.06399434187506	42.62175328084040
6.81500000000000     	1.05345363655732	42.82346106736720
6.82500000000000     	1.06092028930208	43.02719510061237
6.83500000000000     	1.06910191856232	43.23310236220409
6.84500000000000     	1.06090763627349	43.43802974628127
6.85500000000000     	1.05449076532879	43.64231321084907
6.86500000000000     	1.06366895069539	43.84897637795325
6.87500000000000     	1.05775725956799	44.05509011373564
6.88500000000000     	1.06099022197192	44.26243569553740
6.89500000000000     	1.05455807401370	44.46912335958010
6.90500000000000     	1.06151150317326	44.67777777777842
6.91500000000000     	1.05233677234845	44.88522834645718
6.92500000000000     	1.05866357567046	45.09453018372656
6.93500000000000     	1.06159603246411	45.30501837270257
6.94500000000000     	1.06183213858069	45.51616097987753
6.95500000000000     	1.05393746853320	45.72633770778724
6.96500000000000     	1.06337205364654	45.93900612423479
6.97500000000000     	1.05294456951535	46.15019422572125
6.98500000000000     	1.05356808771556	46.36211373578254
6.99500000000000     	1.04557886563859	46.57302887139151
7.00500000000000     	1.05774971892536	46.78700962379791
7.01500000000000     	1.05699590673649	47.00144881889766
7.02500000000000     	1.04803737309396	47.21467716535330
7.03500000000000     	1.03981154126920	47.42683464566875
7.04500000000000     	1.04678155369707	47.64102187226665
7.05500000000000     	1.04920545564616	47.85631496063043
7.06500000000000     	1.05179852061055	48.07275240594902
7.07500000000000     	1.04562219913517	48.28852843394498
7.08500000000000     	1.04867588854687	48.50554680664924
7.09500000000000     	1.05258509296126	48.72398950131335
7.10500000000000     	1.04792587003244	48.94207874015780
7.11500000000000     	1.04214842114797	49.15957655292998
7.12500000000000     	1.03678384436180	49.37656342957066
7.13500000000000     	1.04521828394481	49.59593000874933
7.14500000000000     	1.03258398566309	49.81325284339530
7.15500000000000     	1.04445704527169	50.03369028871376
7.16500000000000     	1.04450341472379	50.25475415572969
7.17500000000000     	1.04032428298373	50.47554855643056
7.18500000000000     	1.03410896207982	50.69563604549525
7.19500000000000     	1.04202596959424	50.91802624671953
7.20500000000000     	1.03895559770108	51.14037795275515
7.21500000000000     	1.03002782745699	51.36143132108409
7.22500000000000     	1.02942261007642	51.58296762904676
7.23500000000000     	1.03510886167927	51.80634470691237
7.24500000000000     	1.03639340123664	52.03061767279073
7.25500000000000     	1.03165142307861	52.25448118985035
7.26500000000000     	1.02604704345784	52.47774278215213
7.27500000000000     	1.03145614640022	52.70279965004465
7.28500000000000     	1.03232116610042	52.92866491688582
7.29500000000000     	1.03100823482094	53.15486264216897
7.30500000000000     	1.03218016525948	53.38193875765447
7.31500000000000     	1.02748806402451	53.60860192475972
7.32500000000000     	1.02531737533472	53.83540507436650
7.33500000000000     	1.01906832560550	54.06144181977227
7.34500000000000     	1.03135332800907	54.29082764654343
7.35500000000000     	1.02641665369733	54.51973753280855
7.36500000000000     	1.01863916238106	54.74753105861871
7.37500000000000     	1.02291729667164	54.97690288713931
7.38500000000000     	1.01317598652296	55.20470691163503
7.39500000000000     	1.01321620369224	55.43313735782984
7.40500000000000     	1.01837659096553	55.66335258092796
7.41500000000000     	1.00670796644373	55.89154505686857
7.42500000000000     	1.02071961901367	56.12353805774218
7.43500000000000     	1.01424425812483	56.35468066491623
7.44500000000000     	1.00876480810622	56.58519335083166
7.45500000000000     	1.01775996576156	56.81838670166317
7.46500000000000     	1.00996253163865	57.05041469816253
7.47500000000000     	1.00951051939349	57.28296062992025
7.48500000000000     	1.00964822287701	57.51616097987739
7.49500000000000     	1.01451136014399	57.75111111111183
7.50500000000000     	1.00481674027363	57.98443744531954
7.51500000000000     	1.00923886497205	58.21941557305270
7.52500000000000     	1.00672318420230	58.45443219597515
7.53500000000000     	1.00161581105821	58.68887839020199
7.54500000000000     	1.00099048239946	58.92380052493483
7.55500000000000     	1.00142086458497	59.15944706911579
7.56500000000000     	1.00616179194900	59.39683639545013
7.57500000000000     	1.00671721768163	59.63498512685981
7.58500000000000     	1.00030205296842	59.87224146981698
7.59500000000000     	1.00005363382350	60.11006474190674
7.60500000000000     	1.00378055149144	60.34940332458358
7.61500000000000     	0.99483673775321	60.58723359580053
7.62500000000000     	1.00039054864816	60.82702012248516
7.63500000000000     	1.00158696325873	61.06772353455809
7.64500000000000     	0.99607818043864	61.30773053368312
7.65500000000000     	0.99082652132438	61.54709711286153
7.66500000000000     	0.99532250249437	61.78817847769127
7.67500000000000     	1.00291879908323	62.03173403324568
7.68500000000000     	0.99151409054562	62.27314785651679
7.69500000000000     	1.00211330299210	62.51777777777702
7.70500000000000     	0.98924740675890	62.75989501312336
7.71500000000000     	0.99716682240642	63.00458442694671
7.72500000000000     	1.00073187656916	63.25078565179364
7.73500000000000     	0.99563475207901	63.49636745406900
7.74500000000000     	0.99002285044759	63.74119685039484
7.75500000000000     	0.99012482854337	63.98668416447949
7.76500000000000     	0.99427759600021	64.23383727034000
7.77500000000000     	0.99506367526931	64.48182327208988
7.78500000000000     	0.99046404754977	64.72929833770746
7.79500000000000     	0.98698838681109	64.97653893263350
7.80500000000000     	0.98897567812442	65.22491338582719
7.81500000000000     	0.98844777093628	65.47379177602923
7.82500000000000     	0.99022065368910	65.72375503062253
7.83500000000000     	0.98362076635957	65.97222747156627
7.84500000000000     	0.98668834896441	66.22115485564166
7.85500000000000     	0.99207654771755	66.47111811023481
7.86500000000000     	0.98932156489681	66.72006299212521
7.87500000000000     	0.99070180177139	66.96902887139113
7.88500000000000     	0.98997268263034	67.21748381452376
7.89500000000000     	0.98529673863620	67.46443744532078
7.90500000000000     	0.99213535123429	67.71277340332638
7.91500000000000     	0.98897483842340	67.95998600175027
7.92500000000000     	0.98059728237612	68.20477340332309
7.93500000000000     	0.98979311177213	68.45152055992803
7.94500000000000     	0.99096581864931	68.69822222222128
7.95500000000000     	0.99228908903543	68.94491338582679
7.96500000000000     	0.98894269366517	69.19043219597640
7.97500000000000     	0.99095756653903	69.43610848644063
7.98500000000000     	0.98973349140018	69.68113735783209
7.99500000000000     	0.98805959002905	69.92540682414763
8.00500000000000     	0.98716720588516	70.16910936132852
